<?xml version="1.0" encoding="UTF-8" standalone="no"?>
<!DOCTYPE svg PUBLIC "-//W3C//DTD SVG 1.1//EN" "http://www.w3.org/Graphics/SVG/1.1/DTD/svg11.dtd">
<svg width="100%" height="100%" viewBox="0 0 93 105" version="1.1" xmlns="http://www.w3.org/2000/svg" xmlns:xlink="http://www.w3.org/1999/xlink" xml:space="preserve" xmlns:serif="http://www.serif.com/" style="fill-rule:evenodd;clip-rule:evenodd;stroke-linecap:square;stroke-miterlimit:2;">
    <g transform="matrix(1,0,0,1,-869,-145)">
        <g transform="matrix(1.23475,0,0,1.17121,-772.225,-69.4036)">
            <g transform="matrix(0.809882,0,0,0.853821,1207.08,-203.625)">
                <g transform="matrix(126.994,0,0,126.994,160.119,551.258)">
                    <path d="M0.241,0.012C0.288,0.012 0.33,-0.01 0.356,-0.047L0.347,0L0.487,0L0.614,-0.722L0.462,-0.676L0.427,-0.475C0.414,-0.499 0.386,-0.523 0.331,-0.523C0.206,-0.523 0.079,-0.407 0.079,-0.195C0.079,-0.073 0.14,0.012 0.241,0.012ZM0.293,-0.129C0.244,-0.129 0.221,-0.164 0.221,-0.219C0.221,-0.305 0.263,-0.383 0.34,-0.383C0.374,-0.383 0.396,-0.368 0.405,-0.347L0.373,-0.162C0.354,-0.138 0.321,-0.129 0.293,-0.129Z" style="fill:rgb(166,255,37);fill-rule:nonzero;stroke:rgb(1,83,40);stroke-width:0.04px;"/>
                </g>
                <g transform="matrix(153.116,0,2.05484e-14,153.116,150.482,536.378)">
                    <path d="M0.292,-0.505C0.301,-0.518 0.312,-0.527 0.324,-0.53C0.337,-0.534 0.349,-0.534 0.36,-0.53C0.372,-0.525 0.382,-0.517 0.389,-0.506C0.397,-0.494 0.4,-0.479 0.398,-0.462C0.397,-0.448 0.396,-0.435 0.393,-0.423C0.391,-0.41 0.388,-0.397 0.386,-0.384C0.386,-0.379 0.385,-0.37 0.383,-0.355C0.382,-0.34 0.38,-0.323 0.377,-0.302C0.374,-0.282 0.371,-0.259 0.367,-0.234C0.363,-0.209 0.357,-0.184 0.35,-0.158C0.343,-0.132 0.335,-0.107 0.325,-0.082C0.315,-0.057 0.303,-0.034 0.289,-0.014C0.275,0.006 0.259,0.023 0.242,0.037C0.224,0.051 0.203,0.06 0.18,0.064C0.15,0.069 0.123,0.068 0.1,0.062C0.078,0.055 0.059,0.045 0.044,0.032C0.029,0.019 0.018,0.005 0.012,-0.012C0.006,-0.029 0.003,-0.044 0.005,-0.059C0.007,-0.072 0.013,-0.08 0.023,-0.084C0.033,-0.088 0.044,-0.085 0.054,-0.076C0.057,-0.074 0.06,-0.07 0.062,-0.066C0.065,-0.062 0.069,-0.058 0.073,-0.055C0.078,-0.052 0.085,-0.049 0.093,-0.047C0.101,-0.046 0.112,-0.046 0.125,-0.048C0.142,-0.052 0.157,-0.057 0.17,-0.066C0.182,-0.074 0.193,-0.084 0.201,-0.095C0.21,-0.105 0.216,-0.116 0.221,-0.127C0.225,-0.137 0.228,-0.146 0.228,-0.152C0.221,-0.146 0.213,-0.141 0.204,-0.137C0.195,-0.133 0.186,-0.129 0.178,-0.125C0.161,-0.119 0.144,-0.116 0.127,-0.117C0.111,-0.119 0.095,-0.123 0.081,-0.131C0.066,-0.138 0.054,-0.149 0.043,-0.163C0.033,-0.177 0.026,-0.193 0.022,-0.21C0.014,-0.254 0.012,-0.295 0.015,-0.334C0.019,-0.373 0.025,-0.408 0.035,-0.438C0.044,-0.468 0.055,-0.492 0.067,-0.51C0.08,-0.529 0.092,-0.539 0.103,-0.541C0.113,-0.542 0.122,-0.542 0.131,-0.539C0.14,-0.536 0.148,-0.531 0.155,-0.524C0.161,-0.517 0.166,-0.507 0.17,-0.496C0.173,-0.485 0.174,-0.472 0.172,-0.456C0.171,-0.444 0.168,-0.428 0.165,-0.41C0.162,-0.392 0.159,-0.372 0.157,-0.352C0.154,-0.332 0.151,-0.312 0.149,-0.292C0.147,-0.272 0.146,-0.255 0.147,-0.239C0.147,-0.224 0.15,-0.212 0.153,-0.202C0.157,-0.193 0.164,-0.189 0.172,-0.191C0.186,-0.193 0.198,-0.204 0.208,-0.222C0.219,-0.239 0.228,-0.26 0.235,-0.284C0.242,-0.308 0.249,-0.332 0.254,-0.357C0.26,-0.382 0.264,-0.402 0.268,-0.418C0.273,-0.433 0.276,-0.445 0.277,-0.455C0.279,-0.464 0.281,-0.471 0.282,-0.477C0.283,-0.483 0.284,-0.488 0.285,-0.492C0.287,-0.496 0.289,-0.5 0.292,-0.505Z" style="fill:rgb(1,83,40);fill-rule:nonzero;"/>
                </g>
            </g>
        </g>
    </g>
</svg>
